module gitlab.com/bstpierre/aklatan

go 1.18

require (
	github.com/bitfield/script v0.20.1
	github.com/gin-contrib/sessions v0.0.5
	github.com/gin-gonic/gin v1.7.7
	github.com/go-playground/validator/v10 v10.4.1
	github.com/goyek/goyek/v2 v2.0.0-rc.12
	github.com/goyek/x v0.1.4
	github.com/magefile/mage v1.13.0
	github.com/mattn/go-sqlite3 v2.0.3+incompatible
	gorm.io/driver/sqlite v1.3.1
	gorm.io/gorm v1.23.1
)

require (
	bitbucket.org/creachadair/shell v0.0.7 // indirect
	github.com/fatih/color v1.13.0 // indirect
	github.com/gin-contrib/sse v0.1.0 // indirect
	github.com/go-playground/locales v0.13.0 // indirect
	github.com/go-playground/universal-translator v0.17.0 // indirect
	github.com/golang/protobuf v1.3.3 // indirect
	github.com/gorilla/context v1.1.1 // indirect
	github.com/gorilla/securecookie v1.1.1 // indirect
	github.com/gorilla/sessions v1.2.1 // indirect
	github.com/itchyny/gojq v0.12.7 // indirect
	github.com/itchyny/timefmt-go v0.1.3 // indirect
	github.com/jinzhu/inflection v1.0.0 // indirect
	github.com/jinzhu/now v1.1.4 // indirect
	github.com/json-iterator/go v1.1.9 // indirect
	github.com/leodido/go-urn v1.2.0 // indirect
	github.com/mattn/go-colorable v0.1.9 // indirect
	github.com/mattn/go-isatty v0.0.14 // indirect
	github.com/mattn/go-shellwords v1.0.12 // indirect
	github.com/modern-go/concurrent v0.0.0-20180228061459-e0a39a4cb421 // indirect
	github.com/modern-go/reflect2 v0.0.0-20180701023420-4b7aa43c6742 // indirect
	github.com/ugorji/go/codec v1.1.7 // indirect
	golang.org/x/crypto v0.0.0-20210220033148-5ea612d1eb83 // indirect
	golang.org/x/sys v0.0.0-20220408201424-a24fb2fb8a0f // indirect
	gopkg.in/yaml.v2 v2.2.8 // indirect
)
